MODULE TestDbg2;

VAR
 globb:FLOAT32;
 globa,globc:SIGNED32;
PROCEDURE Test*;
VAR
 a:SIGNED32;
BEGIN
 a:=12;
 KernelLog.String("ds= "); KernelLog.Int(a,4); KernelLog.Ln;
END Test;

BEGIN
	globb:=3.14;
 	globa:=4321;
 	globc:=4321H;
END TestDbg2.~

