MODULE TFModuleTreesUCS32; (** AUTHOR "tf"; PURPOSE "parse tree with links to text"; *)

IMPORT
	WMStandardComponents, WMGraphics, WMProperties, WMComponents,
	ASCIIStrings := Strings, StringsUCS32, KernelLog, WMTrees, PETTrees,

	TS := TFTypeSysUCS32, ST := TFScopeToolsUCS32,
	WMPopups, WMTextView, WMEditors, TextUtilities, Texts, WMDialogs,
	Diagnostics, Streams, Raster, WMRectangles,
	WMStringGrids, WMGrids, WMWindowManager, WMMessages, UCS32;

CONST
	ProcOther = 0;
	ProcCommand = 1;
	ImageCommandProc = "ModuleTreesIcons.tar://arrow-red.png";
	DoAutoRefresh = TRUE;

TYPE
	Reference = POINTER TO RECORD
		next : Reference;
		fp, tp, np : SIZE;
		no : TS.NamedObject;
	END;
	RefArray = POINTER TO ARRAY OF Reference;

	Comment = POINTER TO RECORD
		next : Comment;
		fp, tp : SIZE;
		h : WMTextView.Highlight;
	END;

	CurrentHighlights = POINTER TO RECORD
		next : CurrentHighlights;
		h : WMTextView.Highlight;
	END;

	TextInfo = OBJECT(PETTrees.TreeNode)
	VAR
		next : TextInfo;
		fp, tp : SIZE;
		name : StringsUCS32.String;
		def : TS.NamedObject;
	END TextInfo;

	SelectWindow*  = OBJECT (WMComponents.FormWindow)
	VAR edit : WMEditors.Editor;
		list : WMStringGrids.StringGrid;
		spacings : WMGrids.Spacings;
		curEditStr : ARRAY 64 OF UCS32.CharJQ;
		table : TS.ObjectList;
		scope: TS.Scope;
		firstLevel : BOOLEAN;
		destinationText : Texts.Text;
		startPos, cursorPos : SIZE;

		PROCEDURE CreateForm(): WMComponents.VisualComponent;
		VAR
			panel : WMStandardComponents.Panel;
			ep, sb, sr, gb, gr, d : WMStandardComponents.Panel;
		BEGIN
			NEW(panel); panel.bounds.SetExtents(200, 160); panel.fillColor.Set(0); panel.takesFocus.Set(TRUE);

			(* right shadow *)
			NEW(sr); sr.bounds.SetWidth(4); sr.alignment.Set(WMComponents.AlignRight); sr.fillColor.Set(0);
			panel.AddContent(sr);

			NEW(d); d.bounds.SetHeight(4); d.alignment.Set(WMComponents.AlignTop); d.fillColor.Set(0);
			sr.AddContent(d);

			NEW(gr); gr.alignment.Set(WMComponents.AlignClient); gr.fillColor.Set(080H);
			sr.AddContent(gr);

			(* bottom shadow *)
			NEW(sb); sb.bounds.SetHeight(4); sb.alignment.Set(WMComponents.AlignBottom); sb.fillColor.Set(0);
			panel.AddContent(sb);

			NEW(d); d.bounds.SetWidth(4); d.alignment.Set(WMComponents.AlignLeft); d.fillColor.Set(0);
			sb.AddContent(d);

			NEW(gb); gb.alignment.Set(WMComponents.AlignClient); gb.fillColor.Set(080H);
			sb.AddContent(gb);

			(* edit panel *)
			NEW(ep); ep.alignment.Set(WMComponents.AlignClient); ep.fillColor.Set(SIGNED32(0DDDD00EEH));
			panel.AddContent(ep);

			NEW(edit); edit.bounds.SetHeight(20); edit.alignment.Set(WMComponents.AlignTop); edit.tv.showBorder.Set(TRUE);
			edit.tv.defaultTextBgColor.Set(0);

			edit.tv.borders.Set(WMRectangles.MakeRect(3, 3, 2, 2));
			edit.allowIME := FALSE;
			edit.multiLine.Set(FALSE);
			edit.tv.textAlignV.Set(WMGraphics.AlignCenter);
			ep.AddContent(edit);
			NEW(list); list.alignment.Set(WMComponents.AlignClient);
			NEW(spacings, 2); spacings[0] := 60; spacings[1] := 140;
			list.SetExtKeyEventHandler(ListKeyPressed);
			list.Acquire;
			list.defaultRowHeight.Set(25);
			list.cellDist.Set(0);
			list.clCell.Set(SIGNED32(0FFFFFFA0H));
			(*list.SetColSpacings(spacings);
			list.SetFont(WMGraphics.GetFont("Single", 20, {})); *)
			list.Release;
			ep.AddContent(list);
			RETURN panel
		END CreateForm;

		PROCEDURE &New*(text: Texts.Text; startPos, cursorPos: SIZE; x, y :SIZE; CONST prefix : ARRAY OF UCS32.CharJQ; scope : TS.Scope; first: BOOLEAN);
		VAR vc : WMComponents.VisualComponent;
		BEGIN
			vc := CreateForm();
			edit.onEnter.Add(Ok);
			edit.tv.SetExtKeyEventHandler(EditKeyPressed);
			SELF.table := table;
			SELF.firstLevel := first;
			SELF.scope := scope;
			SELF.destinationText := text;
			SELF.startPos := startPos;
			SELF.cursorPos := cursorPos;

			Init(vc.bounds.GetWidth(), vc.bounds.GetHeight(), TRUE);
			SetContent(vc);
			manager := WMWindowManager.GetDefaultManager();
			manager.Add(x, y, SELF, {});
			manager.SetFocus(SELF);
			edit.text.onTextChanged.Add(TextChanged);
			edit.SetAsString(UCS32.JQvNovU8(prefix)^);
			edit.SetFocus;
		END New;

		PROCEDURE ListKeyPressed(ucs : SIZE; flags : SET; VAR keySym : SIZE; VAR handled : BOOLEAN);
		BEGIN
			IF keySym = 0FF0DH THEN handled := TRUE; Ok(SELF, NIL); (*edit.SetFocus*)
			ELSIF keySym = 0FF1BH THEN ScheduleHide
			END;
		END ListKeyPressed;

		PROCEDURE EditKeyPressed(ucs : SIZE; flags : SET; VAR keySym : SIZE; VAR handled : BOOLEAN);
		BEGIN
			handled := TRUE;
(*			IF keySym = 0FF08H THEN
				IF curEditStr = "" THEN ScheduleHide
				ELSE edit.KeyPressed(ucs, flags, keySym, handled)
				END
			ELS*)
			IF keySym = 0FF0DH THEN handled := TRUE; Ok(SELF, NIL)
			ELSIF keySym = 0FF54H (*CursorDown*) THEN list.SetFocus
			ELSIF keySym = 0FF1BH (*ESC *)THEN ScheduleHide
			ELSE
				(*handled := FALSE; *)
				edit.KeyPressed(ucs, flags, keySym, handled)
			END;
		END EditKeyPressed;

		PROCEDURE ScheduleHide;
		VAR msg : WMMessages.Message;
		BEGIN
			msg.msgType := WMMessages.MsgExt;
			msg.ext := SELF;
			IF ~sequencer.Add(msg) THEN KernelLog.String("IME Editor out of sync") END;
		END ScheduleHide;

		PROCEDURE WriteSelected;
		VAR ac, ar, bc, br : SIZE;
			p : ANY;
			index : SIZE;
			str, newStr : ARRAY 1024 OF UCS32.CharJQ;
			singleSuggestion : TS.NamedObject;
		BEGIN
			list.Acquire;
			list.model.Acquire;
			list.GetSelection(ac, ar, bc, br);
			p := list.model.GetCellData(0, ar);
			list.model.Release;
			list.Release;
			IF (p # NIL) & (p IS TS.NamedObject) THEN
				singleSuggestion := p(TS.NamedObject);
				index := 0;
				destinationText.AcquireWrite;
				TextUtilities.SubTextToStringJQAt(destinationText, startPos, cursorPos -  startPos, index, str);
				IF StringsUCS32.StartsWith2(str, singleSuggestion.name^) THEN
					destinationText.Delete(startPos, cursorPos - startPos);
					GetInsertString(singleSuggestion, newStr);
					TextUtilities.StringJQToText(destinationText, startPos, newStr);
				END;
				destinationText.ReleaseWrite;
			END
		END WriteSelected;

		PROCEDURE ClearSelection;
		BEGIN
			list.Acquire;
			list.model.Acquire;
			list.model.SetNofRows(0);
			list.model.Release;
			list.Release;
		END ClearSelection;

		PROCEDURE Ok*(sender, data:ANY);
		BEGIN
			WriteSelected;
			ScheduleHide
		END Ok;

		PROCEDURE TextChanged*(sender, data:ANY);
		VAR i : SIGNED32;
			suggestionStr : ARRAY 1024 OF UCS32.CharJQ;
		BEGIN
			(* avoid recursion *)
			edit.text.onTextChanged.Remove(TextChanged);

			(* find the character candidates *)
			edit.GetAsStringJQ(curEditStr);
			NEW(table);
			FindSuggestions(scope, firstLevel,curEditStr, table);

			list.Acquire;
			list.model.Acquire;
			list.SetTopPosition(0, 0, TRUE);
			list.SetSelection(0, 0, 0, 0);
			list.model.SetNofRows(table.nofObjs);
			list.model.SetNofCols(1);

			FOR i := 0 TO table.nofObjs -1 DO
				GetInsertString(table.objs[i], suggestionStr);
				list.model.SetCellText(0, i, UCS32.JQvNovU8(suggestionStr));
				list.model.SetCellData(0, i, table.objs[i]);
			END;
			list.model.Release;
			list.Release;
			edit.text.onTextChanged.Add(TextChanged)
		END TextChanged;

		PROCEDURE FocusLost*;
		BEGIN
			FocusLost^;
			ScheduleHide
		END FocusLost;

		PROCEDURE Hide;
		BEGIN
			manager := WMWindowManager.GetDefaultManager();
			manager.Remove(SELF);
		END Hide;

		PROCEDURE Handle*(VAR x: WMMessages.Message);
		BEGIN
			IF (x.msgType = WMMessages.MsgExt) THEN
				IF (x.ext = SELF) THEN Hide
				END
			ELSE Handle^(x)
			END
		END Handle;

	END SelectWindow;

	ModuleTree* = OBJECT (PETTrees.Tree)
		VAR
			nextUseBtn, renameBtn, publicBtn: WMStandardComponents.Button;
			updateTimer : WMStandardComponents.Timer;
			useHighlights : CurrentHighlights;
			currentNode : TextInfo;
			definitions : TextInfo;
			currentUse : Reference;
			actualParameter : Reference;
			modified : BOOLEAN;
			module : TS.Module;
			posKeeper : TextUtilities.TextPositionKeeper;
			comments : Comment;
			references : Reference;
			errorHighlights, tempHighlights: CurrentHighlights;
			singleSuggestion : TS.NamedObject;
			suggestionStart : SIGNED32;

			cursorScope : TS.Scope;
			cursorIsFirstLevelScope : BOOLEAN;
			petPanel* : WMComponents.VisualComponent; (* Actually a TFPET.PETPanel *)

		PROCEDURE & Init*;
		BEGIN
			Init^;

			treeView.SetExtContextMenuHandler(ContextMenu);

			(* Update a refresh handler *)
			refreshBtn.onClick.Remove(RefreshHandler);
			refreshBtn.onClick.Add(StrongRefreshHandler);

			NEW(renameBtn); renameBtn.alignment.Set(WMComponents.AlignLeft);
			renameBtn.caption.SetAOC("Переименов");
			renameBtn.onClick.Add(RenameHandler);
			toolbar.AddContent(renameBtn);

			NEW(nextUseBtn); nextUseBtn.alignment.Set(WMComponents.AlignLeft);
			nextUseBtn.caption.SetAOC("След.исп");
			nextUseBtn.onClick.Add(NextUseHandler);
			toolbar.AddContent(nextUseBtn);

			NEW(publicBtn); publicBtn.alignment.Set(WMComponents.AlignLeft);
			publicBtn.caption.SetAOC("Внешн");
			publicBtn.isToggle.Set(TRUE);
			publicBtn.onClick.Add(PublicBtnHandler);
			toolbar.AddContent(publicBtn);

			treeView.onStartDrag.Add(OnStartDrag);
			NEW(updateTimer);
			updateTimer.onTimer.Add(RefreshHandler);
			updateTimer.interval.Set(100);
		END Init;

		PROCEDURE StrongRefreshHandler(sender, data : ANY);
		BEGIN
			(* There is a race condition here! *)
			TS.ClearSymbolCache;
			RefreshHandler(sender, data);
		END StrongRefreshHandler;

		PROCEDURE OnStartDrag(sender, data : ANY);
		VAR w, h: SIZE; img: WMGraphics.Image; canvas: WMGraphics.BufferCanvas;
		BEGIN
			NEW(img);
			treeView.MeasureNode(treeView.draggedNode, w, h);
			Raster.Create(img, w, h, Raster.BGRA8888);
			NEW(canvas, img);
			canvas.SetColor(SIGNED32(0FF00FFFFH));
			canvas.Fill(WMRectangles.MakeRect(0, 0, w, h), SIGNED32(0FF00FFFFH), WMGraphics.ModeCopy);
			KernelLog.String("w= "); KernelLog.Int(w, 0); KernelLog.String("h= "); KernelLog.Int(h, 0); KernelLog.Ln;
			canvas.DrawString(5, h -  10, "huga");
			IF StartDrag(treeView.draggedNode, img, 0, 0, NIL, NIL) THEN
				KernelLog.String("drag started"); KernelLog.Ln;
			END;
		END OnStartDrag;

		PROCEDURE SetEditor*(e: WMEditors.Editor);
		BEGIN
			IF e = editor THEN RETURN END;
			IF (highlight # NIL) & (editor # NIL) THEN
				(* editor.tv.onCtrlClicked.Remove(Follow); - переделал на F12, ищи F12 в TFPET.Mod *)
				editor.text.onTextChanged.Remove(TextChanged);
				editor.macros.Remove(HandleMacro);
			END;
			SetEditor^(e);
			editor.text.onTextChanged.Add(TextChanged);
			editor.macros.Add(HandleMacro);
			(* editor.tv.onCtrlClicked.Add(Follow); *)
			NEW(posKeeper, editor.text);
		END SetEditor;

		PROCEDURE BrowseToDefinition*(sender, data : ANY);
		VAR pos : SIZE;
			no : TS.NamedObject;
			scope : TS.Scope;
			ident : ARRAY 64 OF UCS32.CharJQ;
			definition : ARRAY 256 OF UCS32.CharJQ;

			PROCEDURE GetTypeScope(type : TS.Type) : TS.Scope;
			BEGIN
				CASE type.kind OF
					|TS.TObject :  RETURN type.object.scope
					|TS.TArray : RETURN GetTypeScope(type.array.base)
					|TS.TPointer : RETURN GetTypeScope(type.pointer.type)
					|TS.TRecord : RETURN type.record.scope
					|TS.TEnum : RETURN type.enum.scope
				ELSE
				END;
				RETURN NIL
			END GetTypeScope;
		BEGIN
			IF ~IsCallFromSequencer() THEN
				sequencer.ScheduleEvent(SELF.BrowseToDefinition, sender, data);
				RETURN
			END;

			UCS32.COPYU8vJQ(data(PETTrees.ExternalDefinitionInfo).definition, definition);

			pos := StringsUCS32.Pos(UCS32.Lit(".")^, definition);
			IF pos > 0 THEN
				StringsUCS32.Copy(definition, 0, pos, ident);
				StringsUCS32.Delete(definition, 0, pos + 1)
			END;
			IF module.name^ = ident THEN
				IF module.scope = NIL THEN
					KernelLog.String("У модуля нет области видимости."); KernelLog.Ln;
				END
			END;

			scope := module.scope;
			WHILE (definition # UCS32.Lit("")^) & (scope # NIL) DO
				pos := StringsUCS32.Pos(UCS32.Lit(".")^, definition);
				IF pos > 0 THEN
					StringsUCS32.Copy(definition, 0, pos, ident);
					StringsUCS32.Delete(definition, 0, pos + 1)
				ELSE UCS32.COPYJQvJQ(definition, ident); UCS32.COPYJQvJQ(UCS32.Lit("")^,definition);
				END;
				no := scope.Find(ident, FALSE);
				IF no # NIL THEN scope := no.scope END;
				IF no IS TS.TypeDecl THEN scope := GetTypeScope(no(TS.TypeDecl).type) END;
			END;
			IF no # NIL THEN
				IF SelectNodeByNamedObject(no, TRUE) THEN END;
			ELSE
				KernelLog.String("Определение не найдено"); KernelLog.Ln;
			END
		END BrowseToDefinition;


		CONST 
			maksDlinaIdentifikatoraDljaProdolzhenija = 256;
		PROCEDURE Complete*(sender, data : ANY);
		VAR pos, index : SIZE;
			str : ARRAY maksDlinaIdentifikatoraDljaProdolzhenija OF UCS32.CharJQ;
			newStr : ARRAY 1024 OF UCS32.CharJQ;
			x, y : SIZE;
			selector : SelectWindow;
		BEGIN
			IF ~IsCallFromSequencer() THEN
				sequencer.ScheduleEvent(SELF.Complete, sender, data);
				RETURN
			END;
			tree.Acquire;
			editor.text.AcquireWrite;
			IF modified THEN
				Refresh(tree.GetRoot());
			END;

			pos := editor.tv.cursor.GetPosition();

			IF (pos - suggestionStart > LEN(str) - 1) OR (pos - suggestionStart <= 0) THEN
				KernelLog.String("Complete: не смог получить строку, к-рую надо продолжать");
				suggestionStart := pos END;
			IF (singleSuggestion # NIL) & (pos - suggestionStart > 0) THEN
				index := 0;
				TextUtilities.SubTextToStringJQAt(editor.text, suggestionStart, pos -  suggestionStart, index, str);
				IF StringsUCS32.StartsWith2(str, singleSuggestion.name^) THEN
					editor.text.Delete(suggestionStart, pos - suggestionStart);
					GetInsertString(singleSuggestion, newStr);
					TextUtilities.StringJQToText(editor.text, suggestionStart, newStr);
				END
			ELSE
				index := 0;
				TextUtilities.SubTextToStringJQAt(editor.text, suggestionStart, pos -  suggestionStart, index, str);
				IF editor.tv.FindScreenPos(pos, x, y) THEN
					editor.tv.ToWMCoordinates(x, y, x, y);
					NEW(selector, editor.text, suggestionStart, pos, x, y, str, cursorScope, cursorIsFirstLevelScope)
				END;
			END;
		FINALLY
			editor.text.ReleaseWrite;
			tree.Release;
		END Complete;

		PROCEDURE ContextMenu(sender : ANY; x, y: SIZE);
		VAR wmx, wmy : SIZE;
			popup: WMPopups.Popup;
		BEGIN
			NEW(popup);
			IF ~modified THEN
				popup.AddParButton("Переименуй", RenameHandler, NIL);
				popup.AddParButton("Выбери Диапазон", SelectRangeHandler, NIL);
			END;
			IF currentNode # NIL THEN
				IF HasActualParameters(currentNode.def) THEN
					popup.AddParButton("Удали факт. параметры", DelActualParameterHandler, NIL);
				END;
			END;
			treeView.Acquire; treeView.ToWMCoordinates(x, y, wmx, wmy); treeView.Release;
			popup.Popup(wmx, wmy)
		END ContextMenu;

		(* Caller must hold text and tree lock *)
		PROCEDURE Refresh(rootNode: WMTrees.TreeNode);
		VAR
			done : BOOLEAN;
			res: INTEGER;
			child: WMTrees.TreeNode;

			PROCEDURE QuickSort(references: RefArray; lo, hi: SIGNED32);
			VAR i, j: SIGNED32; x, t: Reference;
			BEGIN
				i := lo; j := hi;
				x := references[(lo+hi) DIV 2];

				WHILE (i <= j) DO
					WHILE (posKeeper.GetPos(references[i].fp) < posKeeper.GetPos(x.fp)) DO INC(i) END;
					WHILE (posKeeper.GetPos(x.fp) < posKeeper.GetPos(references[j].fp)) DO DEC(j) END;
					IF (i <= j) THEN
						t := references[i]; references[i] := references[j]; references[j] := t;
						INC(i); DEC(j)
					END
				END;

				IF (lo < j) THEN QuickSort(references, lo, j) END;
				IF (i < hi) THEN QuickSort(references, i, hi) END
			END QuickSort;

		BEGIN
			child := tree.GetChildren(rootNode);
			WHILE child # NIL DO
				tree.RemoveNode(child);
				child := tree.GetChildren(rootNode)
			END;

			done := FALSE;
			IF DoAutoRefresh THEN
				updateTimer.Stop(SELF, NIL);
			END;
			(* t0 := Kernel.GetTicks(); *)
			currentNode := NIL;

			module := RefreshWorkOfPETPanelProcVar(petPanel);
			IF module # NIL THEN
				ClearHighlights;
				ClearErrorHighlights;
				posKeeper.Clear;

				tree.SetNodeState(rootNode, {WMTrees.NodeAlwaysExpanded});
				tree.SetNodeCaption(rootNode, UCS32.JQvNovU8(module.name^));

				tree.SetNodeData(rootNode, GetTextInfo(module.name^, module.pos.a, module.pos.b, 0FFH, {WMGraphics.FontBold}, module));
				definitions := NIL; references := NIL; singleSuggestion := NIL; actualParameter := NIL;
				IF module.altPos.valid THEN
					NEW(references); references.no := module;
					references.fp := posKeeper.AddPos(module.altPos.a);
					references.tp := posKeeper.AddPos(module.altPos.b);
				END;
				TraverseScope(rootNode, module.scope);

				comments := NIL;
				SearchUses(module.scope, references);

(*				This seems to lose a reference.
				IF references # NIL THEN
					(* copy references into an array for easy sortation *)
					cr := references; count := 0; WHILE cr # NIL DO INC(count); cr := cr.next END;
					NEW(refs, count); cr := references; i:= 0; WHILE cr # NIL DO refs[i] := cr; INC(i); cr := cr.next END;
					QuickSort(refs, 0, LEN(refs^) -1);
					(* recreate the linear list for reuse *)
					references := refs[0]; cr := references;
					FOR i := 1 TO count - 1 DO cr.next := refs[i]; cr := cr.next; END;
					refs[count - 1].next := NIL;
				(*	KernelLog.String("reference count= "); KernelLog.Int(count, 0); KernelLog.Ln; *)
				END; *)

				modified := FALSE;
			END;
			(* t1 := Kernel.GetTicks();
			KernelLog.Int((t1-t0), 0); KernelLog.String("ms"); KernelLog.Ln; *)
			done := TRUE;
		(* Need to catch errors to release locks and let the editing continue*)
		FINALLY
			IF ~done THEN
				TextUtilities.Store(editor.text, "crashtext.txt", "UTF-8", res)
			END
		END Refresh;

		PROCEDURE AddNodes*(parent : PETTrees.TreeNode; diagnostics : Diagnostics.Diagnostics; log : Streams.Writer);
		BEGIN
			AddNodes^(parent, diagnostics, log);
			Refresh(parent)
		END AddNodes;

		PROCEDURE HighlightReferences(no : TS.NamedObject);
		VAR
			cur : CurrentHighlights;
			cr : Reference;
		BEGIN
			ClearHighlights();
			cr := references;
			WHILE cr # NIL DO
				IF cr.no = no THEN
					NEW(cur); cur.next := useHighlights; useHighlights := cur;
					cur.h := editor.tv.CreateHighlight();
					cur.h.SetColor(07FFF3380H);
					cur.h.SetFromTo(posKeeper.GetPos(cr.fp),posKeeper.GetPos(cr.tp));
				END;
				cr := cr.next
			END;
		END HighlightReferences;

		PROCEDURE SelectReferences(d : TextInfo; gotoDef : BOOLEAN);
		BEGIN
			editor.DisableUpdate;
			currentNode := d;
			currentUse := NIL;

			HighlightReferences(d.def);
			IF gotoDef THEN
				editor.tv.cursor.SetPosition(posKeeper.GetPos(currentNode.fp));
				editor.tv.cursor.SetVisible(TRUE);
			END;
			highlight.SetFromTo(posKeeper.GetPos(currentNode.fp), posKeeper.GetPos(currentNode.tp));
			editor.EnableUpdate;
			editor.Invalidate()
		END SelectReferences;

		PROCEDURE SelectActualParameters(def : TS.NamedObject);
		VAR
			cur : CurrentHighlights;
			cr : Reference; tp : SIZE;
		BEGIN
			editor.DisableUpdate;

			cr := actualParameter;
			WHILE cr # NIL DO
				IF cr.no = def THEN
					NEW(cur); cur.next := useHighlights; useHighlights := cur;
					cur.h := editor.tv.CreateHighlight();
					cur.h.SetColor(000FF3380H);
					IF cr.np # -1 THEN tp := posKeeper.GetPos(cr.np) ELSE tp := posKeeper.GetPos(cr.tp) END;
					cur.h.SetFromTo(posKeeper.GetPos(cr.fp), tp);
				END;
				cr := cr.next
			END;
			editor.EnableUpdate;
			editor.Invalidate()
		END SelectActualParameters;

		PROCEDURE HasActualParameters(def : TS.NamedObject) : BOOLEAN;
		VAR
			cr : Reference;
		BEGIN
			cr := actualParameter;
			WHILE cr # NIL DO
				IF cr.no = def THEN RETURN TRUE END;
				cr := cr.next
			END;
			RETURN FALSE
		END HasActualParameters;

		PROCEDURE ClickNode*(sender, data : ANY);
		VAR
			d: ANY;
			text : Texts.Text;
		BEGIN
			currentNode := NIL;
			IF (data # NIL) & (data IS WMTrees.TreeNode) THEN
				tree.Acquire;
				d := tree.GetNodeData(data(WMTrees.TreeNode));
				tree.Release;
				IF (d # NIL) & (d IS TextInfo) THEN
					IF d(TextInfo).def # NIL THEN
						KernelLog.String("def.name= "); KernelLog.UCS32StringJQvUTF8(d(TextInfo).def.name^); KernelLog.Ln;
						ST.ID(d(TextInfo).def);
					ELSE KernelLog.String("def.name=NIL"); KernelLog.Ln
					END;
					text := editor.text;
					text.AcquireRead;
					SelectReferences(d(TextInfo), TRUE);
					SelectActualParameters(d(TextInfo).def);
					text.ReleaseRead;
					editor.SetFocus()
				END
			END
		END ClickNode;

		PROCEDURE ClearHighlights;
		VAR cc : Comment;
			cur : CurrentHighlights;
		BEGIN
			editor.DisableUpdate;
			(* remove comment highlights *)
			cc := comments;
			WHILE cc # NIL DO
				IF cc.h # NIL THEN editor.tv.RemoveHighlight(cc.h) END;
				cc := cc.next
			END;

			(* remove use highlight *)
			cur := useHighlights;
			WHILE cur # NIL DO
				editor.tv.RemoveHighlight(cur.h);
				cur := cur.next
			END;
			useHighlights := NIL;

			editor.EnableUpdate;
			editor.Invalidate()
		END ClearHighlights;

		PROCEDURE ClearErrorHighlights;
		VAR cur : CurrentHighlights;
		BEGIN
			editor.DisableUpdate;
			cur := errorHighlights;
			WHILE cur # NIL DO
				editor.tv.RemoveHighlight(cur.h);
				cur := cur.next
			END;
			errorHighlights := NIL;

			cur := tempHighlights;
			WHILE cur # NIL DO
				editor.tv.RemoveHighlight(cur.h);
				cur := cur.next
			END;
			tempHighlights := NIL;

			singleSuggestion := NIL;
			editor.EnableUpdate;
			editor.Invalidate()
		END ClearErrorHighlights;

		PROCEDURE PublicBtnHandler(sender, data: ANY);
		VAR
			node : WMTrees.TreeNode;
			d : ANY;
			no : TS.NamedObject;
			public : BOOLEAN;
		BEGIN
			tree.Acquire;
			public := publicBtn.GetPressed();
			node := tree.GetRoot();
			WHILE node # NIL DO
				node := GetNextNode(node, FALSE);
				d := tree.GetNodeData(node);
				IF (d # NIL) & (d IS TextInfo) THEN
					IF (d(TextInfo).def # NIL) & (d(TextInfo).def IS TS.NamedObject) THEN
						no := d(TextInfo).def(TS.NamedObject);
						IF public & (no.exportState = {}) THEN
							tree.InclNodeState(node, WMTrees.NodeHidden)
						ELSE
							tree.ExclNodeState(node, WMTrees.NodeHidden)
						END
					END
				END
			END;
			tree.Release;
		END PublicBtnHandler;

		PROCEDURE RenameHandler(sender, data: ANY);
		VAR name, curname : ARRAY 64 OF UCS32.CharJQ;
			instances, replacements : SIGNED32;
			cur : Reference;

			PROCEDURE Replace(a, b : SIZE; CONST old, new : ARRAY OF UCS32.CharJQ) : BOOLEAN;
			VAR oldname : ARRAY 64 OF UCS32.CharJQ;
			BEGIN
				TextUtilities.SubTextToStringJQ(editor.text, a, b - a, oldname);
				IF oldname = old THEN
					editor.text.Delete(a, b - a);
					TextUtilities.StringJQToText(editor.text, a, new);
					RETURN TRUE
				ELSE
					KernelLog.StringJQ(curname,2); KernelLog.String(" expected "); KernelLog.StringJQ(oldname,2); KernelLog.String(" found. Not replaced"); KernelLog.Ln;
					RETURN FALSE
				END
			END Replace;

		BEGIN
			IF currentNode = NIL THEN RETURN END;
			tree.Acquire;

			(*editor.text.debug := TRUE; *)
			editor.text.AcquireWrite;
(*			IF modified THEN
				Refresh(tree.GetRoot());
			END; *)
(* TODO: find the current node again *)
			IF ~modified THEN
				WMDialogs.Information("Информаци устарела", "Сначала обнови")
			ELSE
				instances := 0; replacements := 0;
				UCS32.COPYJQvJQ(currentNode.def.name^, curname);
				UCS32.COPYJQvJQ(curname, name);
				IF WMDialogs.QueryStringJQ("Переименуй идентификатор (Не будет предупреждений о коллизиях!)", name) = 0 THEN
					IF name # curname THEN
						IF Replace(posKeeper.GetPos(currentNode.fp),posKeeper.GetPos( currentNode.tp), curname, name) THEN
							INC(replacements);
							cur := references;
							WHILE cur # NIL DO
								IF cur.no = currentNode.def THEN
									INC(instances);
									IF Replace(posKeeper.GetPos(cur.fp), posKeeper.GetPos(cur.tp), curname, name) THEN INC(replacements) END
								END;
								cur := cur.next
							END
						END
					END
				END;
				KernelLog.String("instances= "); KernelLog.Int(instances, 0); KernelLog.String("replacements= "); KernelLog.Int(replacements, 0); KernelLog.Ln;
			END;
			editor.text.ReleaseWrite;
			(* editor.text.debug := FALSE; *)
			tree.Release;
			RefreshHandler(sender, data)
		END RenameHandler;

		PROCEDURE SelectRangeHandler(sender, data: ANY);
		VAR
			a, b, ch : SIGNED32;
			r : Texts.TextReader;
		BEGIN
			IF currentNode = NIL THEN RETURN END;
			IF currentNode.def = NIL THEN RETURN END;

			IF ~currentNode.def.pos.valid OR ~currentNode.def.altPos.valid THEN
				KernelLog.String("Positions not valid"); KernelLog.Ln;
				RETURN
			END;
			tree.Acquire;
			editor.text.AcquireWrite;
			a := currentNode.def.pos.a;
			b := currentNode.def.altPos.b + 1;

			IF currentNode.def.preComment # NIL THEN
				a := currentNode.def.preComment.first.pos.a
			END;

			NEW(r, editor.text); r.SetDirection(-1); r.SetPosition(a);
			REPEAT
				r.ReadCh(ch);
				DEC(a)
			UNTIL (r.eot) OR (ch = Texts.NewLineChar);

			IF ~r.eot THEN r.ReadCh(ch); IF ch = Texts.NewLineChar THEN DEC(a) END END;

			NEW(r, editor.text); r.SetDirection(1); r.SetPosition(b);
			REPEAT
				r.ReadCh(ch);
				INC(b)
			UNTIL (r.eot) OR (ch = Texts.NewLineChar);

			editor.tv.selection.SetFromTo(a, b);
			editor.text.ReleaseWrite;
			tree.Release;
			RefreshHandler(sender, data)
		END SelectRangeHandler;

		PROCEDURE DelActualParameterHandler(sender, data: ANY);
		VAR
			a, b, instances : SIZE;
			cur : Reference;
		BEGIN
			IF currentNode = NIL THEN RETURN END;
			tree.Acquire;
			editor.text.AcquireWrite;
			instances := 0;
			a := posKeeper.GetPos(currentNode.fp);
			b := posKeeper.GetPos(currentNode.tp);
			editor.text.Delete(a, b - a);

			cur := actualParameter;
			WHILE cur # NIL DO
				IF cur.no = currentNode.def THEN
					IF cur.np # -1 THEN b := posKeeper.GetPos(cur.np) ELSE b := posKeeper.GetPos(cur.tp) END;
					a := posKeeper.GetPos(cur.fp);
					editor.text.Delete(a, b - a);
					INC(instances);
				END;
				cur := cur.next
			END;
			KernelLog.String("instances= "); KernelLog.Int(instances, 0);  KernelLog.Ln;
			editor.text.ReleaseWrite;
			tree.Release;
			RefreshHandler(sender, data)
		END DelActualParameterHandler;

		PROCEDURE NextUseHandler(sender, data : ANY);
		VAR
			text : Texts.Text;
		BEGIN
			IF currentNode # NIL THEN
				IF currentUse = NIL THEN currentUse := references END;
				REPEAT currentUse := currentUse.next UNTIL (currentUse = NIL) OR (currentUse.no = currentNode.def);
				IF currentUse # NIL THEN
					text := editor.text;
					text.AcquireRead;
					editor.tv.cursor.SetPosition(posKeeper.GetPos(currentUse.fp));
					editor.tv.cursor.SetVisible(TRUE);
					text.ReleaseRead;
					editor.SetFocus()
				END
			END
		END NextUseHandler;

		PROCEDURE GetTextInfo(CONST name: ARRAY OF UCS32.CharJQ; fp, tp: SIGNED32; color: SIGNED32; style: SET; def : TS.NamedObject): TextInfo;
		VAR newInfo: TextInfo; font: WMGraphics.Font;
		BEGIN
			NEW(newInfo); newInfo.next := definitions; definitions := newInfo;
			newInfo.name := StringsUCS32.NewString(name);
			newInfo.color := color;
			IF style = {} THEN
				font := treeFontOberon10Plain
			ELSIF style = {WMGraphics.FontBold} THEN
				font := treeFontOberon10Bold
			ELSIF style = {WMGraphics.FontItalic} THEN
				font := treeFontOberon10Italic
			ELSE
				(* unknown style *)
				font := treeFontOberon10Plain
			END;
			newInfo.def := def;
			newInfo.font := font;
			newInfo.fp := posKeeper.AddPos(fp);

			NEW(newInfo.pos, editor.text);
			newInfo.pos.SetPosition(fp);

			newInfo.tp := posKeeper.AddPos(tp);
			RETURN newInfo
		END GetTextInfo;

		PROCEDURE NewNode(parent: WMTrees.TreeNode; caption: StringsUCS32.String; ti : TextInfo): WMTrees.TreeNode;
		VAR newNode: WMTrees.TreeNode;
		BEGIN
			IF parent # NIL THEN
				NEW(newNode);
				tree.SetNodeCaption(newNode, UCS32.JQvNovU8(caption^));
				tree.SetNodeData(newNode, ti);
				tree.AddChildNode(parent, newNode)
			END;
			RETURN newNode
		END NewNode;

		PROCEDURE TraverseTypeScope(curNode : WMTrees.TreeNode;t : TS.Type);
		BEGIN
			IF (t = NIL) THEN
				KernelLog.String("Illegal type def"); KernelLog.Ln;
				RETURN;
			END;
			CASE t.kind OF
				|TS.TAlias : (*DumpDesignator(t.qualident) *)
				|TS.TObject :
					IF t.object # NIL THEN
						TraverseScope(curNode, t.object.scope);
					END;
				|TS.TArray : TraverseTypeScope(curNode, t.array.base);
				|TS.TPointer : TraverseTypeScope(curNode, t.pointer.type)
				|TS.TRecord : TraverseScope(curNode, t.record.scope)
				|TS.TEnum : TraverseScope(curNode, t.enum.scope)
			(*	|TS.TProcedure : DumpProcedure(t.procedure) *)
			ELSE
			END
		END TraverseTypeScope;

		PROCEDURE TraverseProcDecl(curNode : WMTrees.TreeNode; p : TS.ProcDecl);
		VAR params, node : WMTrees.TreeNode;
			cur : TS.NamedObject;
			i : SIGNED32;
			ti : TextInfo;
		BEGIN
			IF (p.signature # NIL) & (p.signature.params # NIL) THEN
				params := NewNode(curNode, UCS32.Lit("Parameter"), NIL);
				FOR i := 0 TO p.signature.params.nofObjs - 1 DO
					cur := p.signature.params.objs[i];
					ti := GetTextInfo(UCS32.Lit("")^, cur.pos.a, cur.pos.b, 0AAFFH, {}, cur);
					node := NewNode(params, cur.name, ti);
				END
			END;
			IF p.scope # NIL THEN
			(*	locals := NewNode(curNode, UCS32.Lit("Locals"), NIL); *)
				TraverseScope(curNode, p.scope)
			END
		END TraverseProcDecl;

		PROCEDURE MakeReference(no : TS.NamedObject; from, to : SIGNED32);
		VAR nr : Reference;
		BEGIN
			NEW(nr); nr.next := references; references := nr;
			nr.no := no; nr.fp := posKeeper.AddPos(from); nr.tp := posKeeper.AddPos(to)
		END MakeReference;

		PROCEDURE UnknownIdentifierError(scope: TS.Scope; first : BOOLEAN; ident : TS.Ident);
		VAR s : ARRAY 1024 OF UCS32.CharJQ;
			cur : CurrentHighlights;
			color : SIGNED32;
			suggestions : TS.ObjectList;
		BEGIN
			color := SIGNED32(0FF000080H);
			TS.s.GetString(ident.name, s);
		(*	KernelLog.String("*** Unknown identifier :"); KernelLog.String(s); KernelLog.Ln; *)
			IF editor.tv.cursor.GetPosition() = ident.pos.b THEN
				suggestionStart := ident.pos.a;
				cursorScope := scope;
				cursorIsFirstLevelScope := first;
				color := SIGNED32(0FF800080H);
				NEW(suggestions);
				FindSuggestions(scope, first, s, suggestions);
				IF suggestions.nofObjs > 0 THEN color := SIGNED32(000008080H) END;
				IF suggestions.nofObjs = 1 THEN singleSuggestion := suggestions.objs[0] END;
			END;
			NEW(cur); cur.next := errorHighlights; errorHighlights := cur;
			cur.h := editor.tv.CreateHighlight();
			cur.h.SetColor(color);

			cur.h.SetFromTo(ident.pos.a, ident.pos.b);
		END UnknownIdentifierError;

		(* Add scope declarations to the tree *)
		PROCEDURE TraverseScope(curNode : WMTrees.TreeNode; scope : TS.Scope);
		VAR i : SIGNED32;
			last, cur : TS.NamedObject;
			node : WMTrees.TreeNode;
			ti : TextInfo;
			imports, consts, vars : WMTrees.TreeNode;
			type : TS.Type;
			procType : SIGNED32;
			image : WMGraphics.Image;
			d : ANY;

			PROCEDURE Insert(parent : WMTrees.TreeNode; color : SIGNED32; style : SET);
			BEGIN
				ti := GetTextInfo(UCS32.Lit("")^, cur.pos.a, cur.pos.b, color, style, cur);
				IF cur.altPos.valid THEN MakeReference(cur, cur.altPos.a, cur.altPos.b) END;
				node := NewNode(parent, cur.name, ti);
			END Insert;

		BEGIN
			IF scope = NIL THEN RETURN END;
			FOR i := 0 TO scope.elements.nofObjs - 1 DO
				cur := scope.elements.objs[i];
				IF cur IS TS.Const THEN
					IF consts = NIL THEN
						NEW(consts);
						tree.SetNodeCaption(consts, ASCIIStrings.NewString("CONST"));
						tree.AddChildNode(curNode, consts)
					END;
					Insert(consts, 0FFFFH, {WMGraphics.FontBold});
				ELSIF cur IS TS.TypeDecl THEN
					(* In case of an object type, the name is defined by the type name, the
					    name at the end of the OBJECT block is a non functional use. Copy
					    the alternative position value *)
					IF (cur(TS.TypeDecl).type.kind = TS.TObject) THEN
						cur(TS.TypeDecl).altPos := cur(TS.TypeDecl).type.object.altPos
					END;
					Insert(curNode, 0FFFFH, {WMGraphics.FontItalic});
					IF (cur(TS.TypeDecl).type.kind = TS.TObject) & (cur(TS.TypeDecl).type.object.scope.superQualident # NIL) THEN
						AddPostfixToCaption(node, UCS32.JQvNovU8(UCS32.Lit(" (")^));
						AddPostfixToCaption(node, UCS32.JQvNovU8(ST.QualidentToString(scope, cur(TS.TypeDecl).type.object.scope.superQualident)^));
						AddPostfixToCaption(node, UCS32.JQvNovU8(UCS32.Lit(")")^));
					ELSIF (cur(TS.TypeDecl).type.kind = TS.TPointer) THEN
						IF (cur(TS.TypeDecl).type.pointer.type.kind = TS.TRecord) &
						  (cur(TS.TypeDecl).type.pointer.type.record.scope.superQualident # NIL) THEN
							AddPostfixToCaption(node, UCS32.JQvNovU8(UCS32.Lit(" (")^));
							AddPostfixToCaption(node, UCS32.JQvNovU8(ST.QualidentToString(scope, cur(TS.TypeDecl).type.pointer.type.record.scope.superQualident)^));
							AddPostfixToCaption(node, UCS32.JQvNovU8(UCS32.Lit(")")^));
						END
					END;
					TraverseTypeScope(node, cur(TS.TypeDecl).type);
				ELSIF cur IS TS.WithStatementPartNamedObject THEN
					Insert(curNode, 0FFFFH, {WMGraphics.FontBold});
					TraverseScope(node, cur.scope)
				ELSIF cur IS TS.Var THEN
					IF vars = NIL THEN
						NEW(vars);
						tree.SetNodeCaption(vars, UCS32.JQvNovU8(UCS32.Lit("VAR")^));
						tree.AddChildNode(curNode, vars)
					END;
					Insert(vars, 07C0000FFH, {});
					IF type # cur(TS.Var).type THEN TraverseTypeScope(node, cur(TS.Var).type) END; type := cur(TS.Var).type
				ELSIF cur IS TS.ProcDecl THEN
					Insert(curNode, 0FFH, {WMGraphics.FontBold});

					IF scope = module.scope THEN
						procType := GetProcedureType(cur(TS.ProcDecl));

						IF (procType = ProcCommand) THEN
							tree.Acquire;
							d := tree.GetNodeData(node);
						(*	IF (d # NIL) & (d IS TextInfo) THEN INCL(d(TextInfo).flags, CanExecute) END; *)
							image := WMGraphics.LoadImage(ImageCommandProc, TRUE);
							tree.SetNodeImage(node, image);
							tree.Release;
						END;
					END;
					TraverseProcDecl(node, cur(TS.ProcDecl))
				ELSIF cur IS TS.Import THEN
					IF imports = NIL THEN
						NEW(imports);
						tree.SetNodeCaption(imports, UCS32.JQvNovU8(UCS32.Lit("IMPORTS")^));
						tree.AddChildNode(curNode, imports)
					END;
					Insert(imports, 0FFH, {});
				END;
				last := cur;
			END
		END TraverseScope;

		PROCEDURE GetNextNode(this : WMTrees.TreeNode; ignoreChildren : BOOLEAN) : WMTrees.TreeNode;
		VAR state : SET;
		BEGIN
			state := tree.GetNodeState(this);
			IF ~ignoreChildren  & (tree.GetChildren(this) # NIL) THEN RETURN tree.GetChildren(this);
			ELSIF tree.GetNextSibling(this) # NIL THEN RETURN tree.GetNextSibling(this);
			ELSIF tree.GetParent(this) # NIL THEN RETURN GetNextNode(tree.GetParent(this), TRUE)
			ELSE RETURN NIL
			END;
		END GetNextNode;

		PROCEDURE SelectNodeByNamedObject(no : TS.NamedObject; gotoDef: BOOLEAN) : BOOLEAN;
		VAR node : WMTrees.TreeNode;
			d : ANY;
		BEGIN
			KernelLog.String("SelectNodeByNamedObject:");
			KernelLog.StringJQ(no.name^,2); KernelLog.Ln;
			tree.Acquire;
			node := tree.GetRoot();
			WHILE node # NIL DO
				node := GetNextNode(node, FALSE);
				d := tree.GetNodeData(node);
				IF (d # NIL) & (d IS TextInfo) THEN
					IF d(TextInfo).def = no THEN
						treeView.SelectNode(node);
						tree.ExpandToRoot(node);
						SelectReferences(d(TextInfo), gotoDef);
						tree.Release;
						RETURN TRUE;
					END
				END
			END;
			tree.Release;
			RETURN FALSE
		END SelectNodeByNamedObject;

		PROCEDURE FindScopeByPos(pos : SIGNED32);
		VAR cur : TextInfo;
			cand, scope : TS.NamedObject;
			candDist, dist : SIGNED32;
		BEGIN
			cur := definitions;
			scope := NIL;
			WHILE cur # NIL DO
				cand := cur.def;

				IF (cand IS TS.ProcDecl) OR
					(cand IS TS.TypeDecl) & (cand(TS.TypeDecl).type.kind = TS.TObject) THEN
					KernelLog.String("#");
					IF cand.pos.valid & cand.altPos.valid THEN
						dist := cand.altPos.b - cand.pos.a;
						IF (pos >= cand.pos.a) & (pos <= cand.altPos.b) &
							((scope = NIL) OR (dist < candDist)) THEN
							candDist := dist;
							scope := cand;
							editor.tv.selection.SetFromTo(cand.pos.a, cand.altPos.b);
						END
					END
				END;
				KernelLog.String("  "); KernelLog.StringJQ(cand.name^,2); KernelLog.Ln;
				cur := cur.next
			END;
			IF scope = NIL THEN scope := module END;
			KernelLog.String("  -->  "); KernelLog.StringJQ(scope.name^,2); KernelLog.Ln;
		END FindScopeByPos;

		PROCEDURE FindIdentByPos(pos : SIZE);
		VAR cur : Reference; ct : TextInfo; c : SIGNED32;
			msg : PETTrees.ExternalDefinitionInfo;
			filename, definition : ARRAY 256 OF UCS32.CharJQ;
			m : TS.Module;
		BEGIN
			(* Search uses *)
			cur := references; c := 0;
			WHILE cur # NIL DO
				INC(c);
				IF (pos >= posKeeper.GetPos(cur.fp)) & (pos <= posKeeper.GetPos(cur.tp)) THEN
					IF ~SelectNodeByNamedObject(cur.no, TRUE) THEN
						(* Ask PET to load and show in different tab *)
						ST.ID(cur.no);
						ST.GetSourceReference(cur.no, filename, definition);
						KernelLog.String("filename= "); KernelLog.StringJQ(filename,2); KernelLog.Ln;
						NEW(msg, UCS32.JQvNovU8(filename)^, UCS32.JQvNovU8(definition)^);
						onGoToDefinition.Call(msg);
					END;
					RETURN
				ELSE cur := cur.next
				END
			END;
			KernelLog.String("references searched c= "); KernelLog.Int(c, 0); KernelLog.Ln;
			(* not found search for definitions*)
			ct := definitions; c := 0;
			WHILE ct # NIL DO
				c := 0;
				IF (pos >= posKeeper.GetPos(ct.fp)) & (pos <= posKeeper.GetPos(ct.tp)) THEN
					IF (ct.def # NIL) & (ct.def IS TS.Import) THEN
						m := TS.ns.GetModule(ct.def(TS.Import).import^);
						IF m = NIL THEN
							m := TS.ReadSymbolFile(ct.def(TS.Import).import^)
						END;
						IF (m # NIL) & (m.filename # NIL) THEN
							UCS32.COPYJQvJQ(m.filename^,  filename);
							UCS32.COPYJQvJQ(UCS32.Lit("")^,definition);
							KernelLog.String("filename= "); KernelLog.StringJQ(filename,2); KernelLog.Ln;
							NEW(msg, UCS32.JQvNovU8(filename)^, UCS32.JQvNovU8(definition)^);
							onGoToDefinition.Call(msg);
						END
					ELSIF ~ SelectNodeByNamedObject(ct.def, TRUE) THEN
						KernelLog.String("Definition not found in tree : "); KernelLog.Ln;
						ST.ID(ct.def);
					END;
					RETURN
				ELSE ct := ct.next
				END
			END;
			KernelLog.String("FindIdentByPos: definitions searched c= "); KernelLog.Int(c, 0); KernelLog.Ln;
			KernelLog.String("Not found"); KernelLog.String(" pos= "); KernelLog.Int(pos, 0); KernelLog.Ln;

		END FindIdentByPos;

		PROCEDURE HandleMacro*(sender, data: ANY);
		VAR md : WMEditors.MacroData; text : Texts.Text; cursor : WMTextView.PositionMarker;
		BEGIN
			IF (data # NIL) & (data IS WMEditors.MacroData) THEN
				md := data(WMEditors.MacroData);
				IF md.keySym = 0FFC9H THEN
					text := md.text; cursor := md.cursor;
					md.handled := TRUE;
					FindIdentByPos(cursor.GetPosition())
				ELSIF md.keySym = 0FFC2H THEN
					RefreshHandler(sender, data);
					md.handled := TRUE
				END;
			END
		END HandleMacro;

		PROCEDURE Follow*(sender, data : ANY);
		BEGIN
			IF ~IsCallFromSequencer() THEN
				sequencer.ScheduleEvent(SELF.Follow, sender, data);
				RETURN
			END;
			FindIdentByPos(editor.tv.cursor.GetPosition())
		END Follow;

		PROCEDURE AddComments(c : TS.Comments);
		VAR cur : TS.Comment;
			nc : Comment;
		BEGIN
			IF c = NIL THEN RETURN END;
			cur := c.first;
			WHILE cur # NIL DO
				NEW(nc); nc.next := comments; comments := nc;
				nc.fp := posKeeper.AddPos(cur.pos.a);
				nc.tp := posKeeper.AddPos(cur.pos.b);
				cur := cur.next
			END
		END AddComments;

		(* SearchUses fills the Reference. ref will contain a table which maps from
		    the buffer offset to a named object seen in the text at this offset *)
		PROCEDURE SearchUses*(d : TS.Scope;  VAR ref : Reference);
		VAR i : SIGNED32;
			last, cur : TS.NamedObject;
			nr : Reference;
			lastVarType : TS.Type;

			PROCEDURE CheckExpressionList(e : TS.ExpressionList; sig : TS.ProcedureSignature; scope : TS.Scope);
			VAR i, a, b : SIGNED32; nr, f : Reference;
			BEGIN
				i := 0;
				f := NIL;
				WHILE e # NIL DO
					CheckExpression(e.expression, scope);
					IF (sig # NIL) & (sig.params # NIL)  THEN
						IF i < sig.params.nofObjs THEN
							a := -1; b := -1; GetExpressionRange(e.expression, a, b);
							IF (a >= 0) & (b > a) THEN
								NEW(nr); nr.next := actualParameter; actualParameter := nr; nr.np := -1;
								nr.no := sig.params.objs[i];
								nr.fp := posKeeper.AddPos(a);
								nr.tp := posKeeper.AddPos(b);
								IF f # NIL THEN f.np := nr.fp END; f := nr;
							END
						ELSE
							GetExpressionRange(e.expression, a, b);
							KernelLog.String("pos = "); KernelLog.Int(a, 0); KernelLog.String(" more parameter than expected ")
						END
					END;
					INC(i);
					e := e.next
				END
			END CheckExpressionList;

			PROCEDURE GetDesignatorRange(di : TS.Designator; VAR a, b : SIGNED32);
			VAR d : TS.Expression;
			BEGIN
				d := di;
				IF d IS TS.Ident THEN
					IF (a = -1) OR (d(TS.Ident).pos.a < a) THEN a := d(TS.Ident).pos.a END;
					IF d(TS.Ident).pos.b > b THEN b := d(TS.Ident).pos.b END;
				ELSIF d IS TS.Index THEN
				ELSIF d IS TS.ActualParameters THEN
				END;
				IF (d.next # NIL)&(d.next IS TS.Designator) THEN
					GetDesignatorRange(d.next(TS.Designator), a, b)
				END
			END GetDesignatorRange;

			PROCEDURE GetExpressionRange(e : TS.Expression; VAR a, b : SIGNED32);
			VAR ta, tb : SIGNED32;
			BEGIN
				ta := -1; tb := -1; IF e =  NIL THEN RETURN END;
				IF e.kind = TS.ExpressionPrimitive THEN
				ELSIF e.kind = TS.ExpressionUnary THEN
					GetExpressionRange(e.a, ta, tb);
					IF a = -1 THEN a := ta END;
					IF (ta # -1) & (ta < a) THEN a := ta END;IF (tb > b) THEN b := tb END;
				ELSIF (e.kind = TS.ExpressionBinary) OR (e.kind = TS.ExpressionRange) THEN
					GetExpressionRange(e.a, ta, tb);
					IF a = -1 THEN a := ta END;
					IF (ta # -1) & (ta < a) THEN a := ta END;IF (tb > b) THEN b := tb END;
					ta := -1; tb := -1;
					GetExpressionRange(e.b, ta, tb);
					IF a = -1 THEN a := ta END;
					IF (ta # -1) & (ta < a) THEN a := ta END;IF (tb > b) THEN b := tb END;
				ELSIF e.kind = TS.ExpressionDesignator THEN
					GetDesignatorRange(e.designator, a, b)
				END
			END GetExpressionRange;

			PROCEDURE CheckExpression(e : TS.Expression; scope : TS.Scope);
			VAR t : TS.Type;
				sr : TS.SetRange; ae : TS.ArrayLiteralElement;
				primernoDesignator : BOOLEAN;
			BEGIN
				IF e = NIL THEN KernelLog.String("Expression is NIL"); RETURN END;

				primernoDesignator := (e.kind = TS.ExpressionDesignator)
					OR (e.kind = TS.ExpressionSizeOf)
					OR (e.kind = TS.ExpressionAddressOf);

				IF e.kind = TS.ExpressionPrimitive THEN
					IF e.basicType = TS.BasicSet THEN
						sr := e.setValue.setRanges;
						WHILE sr # NIL DO
							IF sr.a # NIL THEN CheckExpression(sr.a, scope) END;
							IF sr.b # NIL THEN CheckExpression(sr.b, scope) END;
							sr := sr.next END
					ELSIF e.basicType = TS.BasicArrayLiteral THEN
						ae := e.arrayLiteralValue.elements;
						WHILE ae # NIL DO
							IF ae.val # NIL THEN CheckExpression(ae.val, scope) END;
							ae := ae.next END END;
				ELSIF e.kind = TS.ExpressionUnary THEN
					CheckExpression(e.a, scope);
					RETURN (* my vykhodim zdesq, t.k. ne khotim obrabatyvatq DesignatorOperations *)
				ELSIF e.kind = TS.ExpressionRange THEN
					CheckExpression(e.a, scope);
					CheckExpression(e.b, scope);
					RETURN (* my vykhodim zdesq, t.k. ne khotim obrabatyvatq DesignatorOperations *)
				ELSIF e.kind = TS.ExpressionBinary THEN
					CheckExpression(e.a, scope);
					IF e.op # TS.OpIs THEN CheckExpression(e.b, scope)
					ELSE
						t := ST.FindType(e.b.designator, scope);
						CheckDesignator(e.b.designator, scope);
						IF t = NIL THEN 
							KernelLog.String("TFModuleTrees.ModuleTree.SearchUses.CheckExpression: pos = "); 
							KernelLog.Int(e.b.designator(TS.Ident).pos.a, 0); 
							KernelLog.String(" Type not found ") END 	
						END;
					RETURN (* my vykhodim zdesq, t.k. ne khotim obrabatyvatq DesignatorOperations *)
				ELSIF primernoDesignator THEN
					CheckDesignator(e.designator, scope);
					RETURN (* my vykhodim zdesq, t.k. ne khotim obrabatyvatq DesignatorOperations *)
				ELSE
					KernelLog.String("CheckExpression: WTF?"); KernelLog.Ln;
					RETURN (* my vykhodim zdesq, t.k. ne khotim obrabatyvatq DesignatorOperations *)
				END;
			IF e.next # NIL THEN
				(* pytaemsja obrabotatq minimum vozmozhnogo dlja novykh (2019-09-10) variantov primenenija
					DesignatorOperations *)
				CheckExpression(e.next, scope) END END CheckExpression;

			PROCEDURE CheckSuperClass(o : TS.Class; scope : TS.Scope);
			VAR st : TS.Type;
			BEGIN
				IF (o.scope.super = NIL) & (o.scope.super # NIL) THEN
				(*	KernelLog.String("Searching for super type :");  ST.ShowDesignator(o.super); KernelLog.Ln; *)
					st := ST.DealiaseType(ST.FindType(o.scope.superQualident, scope));
					IF st # NIL THEN
						IF st.kind = TS.TObject THEN
							o.scope.super := st.object.scope;
						ELSE KernelLog.String("super type is not an class"); KernelLog.Ln;
						END
					(* ELSE KernelLog.String("No information about super type "); KernelLog.Ln; *)
					END
				END
			END CheckSuperClass;

			PROCEDURE CheckDesignator(di : TS.Designator; scope : TS.Scope);
			VAR 
				d : TS.Expression; (* privodim k predku *)
				no: TS.NamedObject;
				curScope : TS.Scope;
				type, temptype : TS.Type;

				first : BOOLEAN;
				s : ARRAY 64 OF UCS32.CharJQ;
				m : TS.Module;
				te : TS.ExpressionList;
				lastpos : SIGNED32;

				PROCEDURE SetReference(id : TS.Ident; no : TS.NamedObject);
				BEGIN
				 	(* KernelLog.String("SetReference: no.name = ");
					KernelLog.String(no.name^);
					KernelLog.String(", pos = ");
					KernelLog.Int(id.pos.a,0); KernelLog.Ln; *)
					NEW(nr); nr.next := ref; ref := nr;
					nr.no := no;
					nr.fp := posKeeper.AddPos(id.pos.a);
					nr.tp := posKeeper.AddPos(id.pos.b);
				END SetReference;

			(** TypeForSubexpression sets type variable to some new value as
			we go through the expression structure, and updates the scope *)
			PROCEDURE typeChange(newType : TS.Type);
			BEGIN
				type := newType;
				IF type # NIL THEN
					IF type.kind = TS.TRecord THEN curScope := type.record.scope
					ELSIF type.kind = TS.TObject THEN curScope := type.object.scope
					ELSIF type.kind = TS.TEnum THEN curScope := type.enum.scope END END END typeChange;

			PROCEDURE CheckSelf;
			BEGIN
							curScope := scope.parent;
							(* look for object or module represented by SELF*)
							WHILE (curScope.parent # NIL) & (curScope.owner # NIL) &
								~((curScope.owner IS TS.Class) OR (curScope.owner IS TS.Module)) DO
								curScope := curScope.parent
							END;
							IF curScope = NIL THEN
								KernelLog.String("SELF could not be resolved"); KernelLog.Ln;
				END END CheckSelf;

			PROCEDURE CheckSystem;
			BEGIN
							d := d.next;
							IF d # NIL THEN
								IF d IS TS.Ident THEN
									TS.s.GetString(d(TS.Ident).name, s);
									IF s = UCS32.Lit("VAL")^ THEN
										d := d.next;
										IF d # NIL THEN
											IF d IS TS.ActualParameters THEN
												te := d(TS.ActualParameters).expressionList;
												IF te # NIL THEN
													IF te.expression.kind = TS.ExpressionDesignator THEN
														temptype := ST.FindType(te.expression.designator, scope);
														IF temptype = NIL THEN KernelLog.String("pos = "); KernelLog.Int(te.expression.designator(TS.Ident).pos.a, 0); KernelLog.String(" Type not found ") END;
													END;
													te := te.next;
													CheckExpression(te.expression, scope);
												ELSE
										KernelLog.String("CheckSystem: type arameter expeced"); KernelLog.Ln;
												END
											ELSE
									KernelLog.String("CheckSystem: parameters expeced"); KernelLog.Ln;
											END
										ELSE
											KernelLog.String("Pos= "); KernelLog.Int(d(TS.Ident).pos.a, 0);  KernelLog.StringJQ(s,2); KernelLog.String("Ident expeced"); KernelLog.Ln;
										END
									END
								ELSE
						KernelLog.StringJQ(s,2); KernelLog.String("CheckSystem: Ident expeced"); KernelLog.Ln;
								END
							ELSE
					KernelLog.String("Pos= "); KernelLog.Int(d(TS.Ident).pos.a, 0);
					KernelLog.StringJQ(s,2); KernelLog.String("incomplete SYSTEM call"); KernelLog.Ln;
				END END CheckSystem;

			PROCEDURE CheckItIsASuperCallOrReference;
				VAR no1 : TS.NamedObject;
				BEGIN
								IF (no IS TS.ProcDecl) & (d.next # NIL) & (d.next IS TS.Dereference) THEN
									no.scope.parent.FixSuperScope;
									IF no.scope.parent.super # NIL THEN
							no1 := no.scope.parent.super.Find(s, FALSE);
							IF no1 # NIL THEN
								no := no1 END;
						ELSE KernelLog.String("CheckItIsASuperCallOrReference: super is NIL"); KernelLog.StringJQ(s,2); KernelLog.Ln;
									END
					END END CheckItIsASuperCallOrReference;

			PROCEDURE CheckWhenNoIsVar;
				BEGIN
					typeChange(ST.DealiaseType(no(TS.Var).type)) END CheckWhenNoIsVar;


			PROCEDURE CheckWhenNoIsEnum;
				BEGIN
					KernelLog.String("CheckDesignator: enum...");
					typeChange(no(TS.TypeDecl).type); (*999*)
					IF curScope # NIL THEN
						KernelLog.String("Has a scope...");
						KernelLog.Int(curScope.elements.nofObjs,0);
						KernelLog.String("elements");
						KernelLog.Ln; END;
					(* 	curScope := no.scope; *)
					END CheckWhenNoIsEnum;

			PROCEDURE CheckWhenNoIsProcDecl;
				BEGIN
									IF no(TS.ProcDecl).signature # NIL THEN
						typeChange(ST.DealiaseType(no(TS.ProcDecl).signature.return));
					END END CheckWhenNoIsProcDecl;

			PROCEDURE CheckWhenNoIsImport;
				BEGIN
									m := TS.GetModule(no(TS.Import));
									IF m # NIL THEN
										curScope := m.scope;
(*										ELSE
										KernelLog.String("No symbol information for : "); KernelLog.String(no(TS.Import).import^); KernelLog.Ln *)
					END END CheckWhenNoIsImport;

			PROCEDURE CheckWhenNoIsConst;
				BEGIN
									IF d.next # NIL THEN
				END END CheckWhenNoIsConst;

			(** We are processing an expression and found an index expression [arg1,...].
			  CheckIndexAndChangeType does two things:
			  - checks indices
			  - updates an expression type to that of array element
			  *)
			PROCEDURE CheckIndexAndChangeType; BEGIN
				no := NIL;
						IF (type # NIL) & (type.kind = TS.TPointer) THEN
							type := ST.DealiaseType(type.pointer.type) END;
						IF (type = NIL) OR ( type.kind # TS.TArray) THEN
							IF type # NIL THEN ST.ShowType(type) END;
					KernelLog.String("CheckIndexAndChangeType: Type is not an array pos= "); KernelLog.Int(lastpos, 0);  KernelLog.Ln
						ELSE
					typeChange(ST.DealiaseType(type.array.base));
						END;
				CheckExpressionList(d(TS.Index).expressionList, NIL,  scope); END CheckIndexAndChangeType;

			PROCEDURE CheckActParamsOfCall(optionalNo : TS.NamedObject); BEGIN
				IF optionalNo # NIL THEN
					typeChange(ST.DealiaseType(optionalNo(TS.Var).type));
				ELSIF type # NIL THEN
					typeChange(ST.DealiaseType(type));
				ELSE
					KernelLog.String("CheckActParamsOfCall: type = NIL");
					RETURN END;
								IF  (type # NIL) & (type.kind = TS.TProcedure) THEN
									(* delegate *)
									IF type.procedure = NIL THEN
						KernelLog.String("CheckActParamsOfCall:  no(TS.Var).type.procedure"); KernelLog.Ln;
									ELSIF type.procedure.signature = NIL THEN
						KernelLog.String("CheckActParamsOfCall: no(TS.Var).type.procedure.signature"); KernelLog.Ln;
									ELSE
						CheckExpressionList(
							d(TS.ActualParameters).expressionList, type.procedure.signature, scope) END;
								ELSE
				 	(* type guard of kind var(type) *)
									IF d(TS.ActualParameters).expressionList # NIL THEN
										IF d(TS.ActualParameters).expressionList.next # NIL THEN
							KernelLog.String("CheckActParamsOfCall: lastpos= "); KernelLog.Int(lastpos, 0);
							KernelLog.String(
								"CheckActParamsOfCall: var(type): Can only guard for one type at once."
							); KernelLog.Ln
										ELSE
											IF d(TS.ActualParameters).expressionList.expression.kind = TS.ExpressionDesignator THEN
								typeChange(ST.DealiaseType(
									ST.FindType(d(TS.ActualParameters).expressionList.expression.designator, scope)));
												CheckDesignator(d(TS.ActualParameters).expressionList.expression.designator, scope);
											ELSE
								KernelLog.String("CheckActParamsOfCall: Type expected"); KernelLog.Ln
							END END END END END CheckActParamsOfCall;

			BEGIN (* CheckDesignator *)
				d := di; 
				first := TRUE;
				curScope := scope;
				WHILE d # NIL DO
					IF d IS TS.Ident THEN
						lastpos := d(TS.Ident).pos.a;
						TS.s.GetString(d(TS.Ident).name, s);
						IF first & (s = UCS32.Lit("SELF")^) THEN CheckSelf;
						ELSIF first & (s = UCS32.Lit("SYSTEM")^) THEN CheckSystem;
						ELSE (* Simply an identifier, not SELF, not SYSTEM *)
							IF curScope # NIL THEN
								no := curScope.Find(s, first);
								(* KernelLog.String("CheckDesignator. Scope owner is ");
								KernelLog.String(curScope.owner.name^); KernelLog.Ln; *)
								IF (no = NIL) THEN
									UnknownIdentifierError(curScope, first, d(TS.Ident)); RETURN END;
								CheckItIsASuperCallOrReference;
								SetReference(d(TS.Ident), no);
								IF no IS TS.Var THEN	CheckWhenNoIsVar;
								ELSIF no IS TS.ProcDecl THEN CheckWhenNoIsProcDecl;
								ELSIF no IS TS.Import THEN CheckWhenNoIsImport;
								ELSIF no IS TS.Const THEN CheckWhenNoIsConst;
								ELSIF (no IS TS.TypeDecl) & (no(TS.TypeDecl).type.kind = TS.TEnum) THEN
									CheckWhenNoIsEnum;
								(* ELSE
									KernelLog.String(" Pos= "); KernelLog.Int(d(TS.Ident).pos.a, 0);  KernelLog.String(" : ");
									KernelLog.String("variable, const or procedure expected but "); ST.ID(no); KernelLog.Ln; *)
								END
							ELSE
								KernelLog.String("CheckDesignator: no scope"); KernelLog.Ln END	END
					ELSIF d IS TS.Dereference THEN IF d.next # NIL THEN d := d.next END;
					ELSIF d IS TS.Index THEN
						CheckIndexAndChangeType;
					ELSIF d IS TS.ActualParameters THEN
						(* no is the item before "(" *)
						IF no # NIL THEN
							IF no IS TS.ProcDecl THEN
								CheckExpressionList(d(TS.ActualParameters).expressionList, no(TS.ProcDecl).signature, scope)
							ELSIF (no IS TS.TypeDecl) THEN
							     (* This is type guard. It only works for numeric types. It should only contain
												one expression, but we don't care *)
								CheckExpressionList(d(TS.ActualParameters).expressionList, NIL, scope)
							ELSIF (no IS TS.Var) THEN
								CheckActParamsOfCall(no);
							ELSE (* huh ? *)
								HALT(12345);
							END
						ELSIF type # NIL THEN
							CheckActParamsOfCall(NIL)
						ELSE
							(* nothing good found... fallback *)
							KernelLog.String("CheckDesignator: fallback 1");KernelLog.Ln;
							CheckExpressionList(d(TS.ActualParameters).expressionList, NIL, scope)
							(* probably because of a not found
							KernelLog.String("lastpos= "); KernelLog.Int(lastpos, 0);
							KernelLog.String(" No proc"); KernelLog.Ln *)
						END
					END;
					first := FALSE;

					(* Auto dereferencing *)
					IF type # NIL THEN
						IF type.kind = TS.TPointer THEN type := ST.DealiaseType(type.pointer.type) END;
						IF type # NIL THEN
							IF type.kind = TS.TRecord THEN curScope := type.record.scope
							ELSIF type.kind = TS.TEnum THEN curScope := type.enum.scope
							ELSIF type.kind = TS.TObject THEN curScope := type.object.scope END
						END
					END;
					d := d.next
				END
			END CheckDesignator;

			PROCEDURE CheckCases(case : TS.Case; scope : TS.Scope);
			VAR cr : TS.CaseRange;
			BEGIN
				WHILE case # NIL DO
					cr := case.caseRanges;
					WHILE cr # NIL DO
						CheckExpression(cr.a, scope);
						IF cr.b # NIL THEN CheckExpression(cr.b, scope) END;
						cr := cr.next
					END;
					IF case.statements # NIL THEN SearchStatements(case.statements, scope) END;
					case := case.next
				END
			END CheckCases;

			PROCEDURE SearchStatements(s : TS.Statement; scope : TS.Scope);
			VAR ts : TS.Statement; wsp : TS.WITHStatementPart; t : TS.Type;
			BEGIN
				WHILE s # NIL DO
					AddComments(s.preComment); AddComments(s.postComment);
					IF s IS TS.Assignment THEN
						CheckDesignator(s(TS.Assignment).designator, scope);
						CheckExpression(s(TS.Assignment).expression, scope);
					ELSIF s IS TS.ProcedureCall THEN
						CheckDesignator(s(TS.ProcedureCall).designator, scope)
					ELSIF s IS TS.StatementBlock THEN
						SearchStatements(s(TS.StatementBlock).statements, scope);
					ELSIF s IS TS.IFStatement THEN
						CheckExpression(s(TS.IFStatement).expression, scope);
						SearchStatements(s(TS.IFStatement).then, scope);
						ts := s(TS.IFStatement).else;
						IF ts # NIL THEN
							SearchStatements(ts, scope);
						END;
					ELSIF s IS TS.WHILEStatement THEN
						CheckExpression(s(TS.WHILEStatement).expression, scope);
						SearchStatements(s(TS.WHILEStatement).statements, scope);
					ELSIF s IS TS.REPEATStatement THEN
						SearchStatements(s(TS.REPEATStatement).statements, scope);
						CheckExpression(s(TS.REPEATStatement).expression, scope);
					ELSIF s IS TS.LOOPStatement THEN
						SearchStatements(s(TS.LOOPStatement).statements, scope);
					ELSIF s IS TS.FORStatement THEN
						CheckDesignator(s(TS.FORStatement).variable, scope);
						CheckExpression(s(TS.FORStatement).fromExpression, scope);
						CheckExpression(s(TS.FORStatement).toExpression, scope);
						IF s(TS.FORStatement).byExpression # NIL THEN
							CheckExpression(s(TS.FORStatement).byExpression, scope);
						END;
						SearchStatements(s(TS.FORStatement).statements, scope);
					ELSIF s IS TS.RETURNStatement THEN
						IF s(TS.RETURNStatement).expression # NIL THEN
							CheckExpression(s(TS.RETURNStatement).expression, scope) END;
					ELSIF s IS TS.IGNOREStatement THEN
						CheckExpression(s(TS.IGNOREStatement).expression, scope);
					ELSIF s IS TS.AWAITStatement THEN
						CheckExpression(s(TS.AWAITStatement).expression, scope);
					ELSIF s IS TS.WITHStatement THEN
						IF (s(TS.WITHStatement).variable # NIL) THEN
						CheckDesignator(s(TS.WITHStatement).variable, scope);
							wsp := s(TS.WITHStatement).typedClauses;
							WHILE wsp # NIL DO
								IF (wsp.type # NIL) & (wsp.type.qualident # NIL) THEN
									t := ST.FindType(wsp.type.qualident, scope);
									CheckDesignator(wsp.type.qualident, scope);
									IF t = NIL THEN
										KernelLog.String("SearchStatements : WITHStatement : pos = ");
										KernelLog.Int(wsp.type.qualident(TS.Ident).pos.a, 0);
										KernelLog.String(" Type not found "); KernelLog.Ln; END END;
								SearchStatements(wsp.statements, wsp.scope);
								wsp := wsp.next END;
							IF s(TS.WITHStatement).elseClause # NIL THEN
								SearchStatements(s(TS.WITHStatement).elseClause, scope) END END
					ELSIF s IS TS.CASEStatement THEN
						CheckExpression(s(TS.CASEStatement).expression, scope);
						CheckCases(s(TS.CASEStatement).cases, scope);
						IF s(TS.CASEStatement).else # NIL THEN
							SearchStatements(s(TS.CASEStatement).else, scope)
						END;
					END;
					s := s.next
				END
			END SearchStatements;

			PROCEDURE CheckSignature(sig : TS.ProcedureSignature);
			VAR i : SIGNED32; cur : TS.NamedObject; t : TS.Type;
			BEGIN
				IF sig = NIL THEN RETURN END;
				IF sig.return # NIL THEN CheckType(sig.return) END;
				IF sig.params # NIL THEN
					t := NIL;
					FOR i := 0 TO sig.params.nofObjs - 1 DO
						cur := sig.params.objs[i];
						IF cur IS TS.Var THEN IF t # cur(TS.Var).type THEN CheckType(cur(TS.Var).type) END; t := cur(TS.Var).type
						ELSE KernelLog.String("non- variable as a parameter"); KernelLog.Ln
						END
					END
				END
			END CheckSignature;

			PROCEDURE CheckProcedure(p : TS.ProcDecl);
			BEGIN
				CheckSignature(p.signature);
				(* KernelLog.String("WTF.2.CheckProcedure: p.name^= "); KernelLog.String(p.name^); KernelLog.Ln; *)
				SearchUses(p.scope, ref);
			END CheckProcedure;

			PROCEDURE CheckType(t : TS.Type);
			BEGIN
				IF t = NIL THEN
					(* TODO: what ? *)
					RETURN
				END;
				CASE t.kind OF
					|TS.TBasic : ;
					|TS.TAlias : CheckDesignator(t.qualident, t.container)
					|TS.TObject : CheckDesignator(t.object.scope.superQualident, t.container); CheckSuperClass(t.object, t.container); SearchUses(t.object.scope, ref)
					|TS.TArray : IF t.array.expression # NIL THEN CheckExpression(t.array.expression, t.container) END;
								CheckType(t.array.base)
					|TS.TPointer : CheckType(t.pointer.type)
					|TS.TRecord : CheckDesignator(t.record.scope.superQualident, t.container); SearchUses(t.record.scope, ref)
					|TS.TEnum : (* CheckDesignator(t.enum.scope.superQualident, t.container); *) SearchUses(t.enum.scope, ref)
					|TS.TProcedure : (* CheckDeclarations(t.procedure.scope) *)
				ELSE
					KernelLog.String("TFModuleTrees.CheckType: t.kind= "); KernelLog.Int(t.kind, 0); KernelLog.Ln
				END
			END CheckType;

		BEGIN
			IF d = NIL THEN RETURN END;
			IF d.ownerBody # NIL THEN SearchStatements(d.ownerBody, d) END;
			FOR i := 0 TO d.elements.nofObjs - 1 DO
				cur := d.elements.objs[i];
				AddComments(cur.preComment); AddComments(cur.postComment);
				IF cur IS TS.Const THEN CheckExpression(cur(TS.Const).expression, d)
				ELSIF cur IS TS.TypeDecl THEN
					IF (cur(TS.TypeDecl).type.kind= TS.TObject) & (cur(TS.TypeDecl).type.object = NIL) THEN
						KernelLog.String("cur.name^= "); KernelLog.StringJQ(cur.name^,2); KernelLog.String(" will now lead to halt "); KernelLog.Ln;
					END;
					(* KernelLog.String("WTF: cur.name^= "); KernelLog.String(cur.name^); KernelLog.Ln; *)
					CheckType(cur(TS.TypeDecl).type)
				ELSIF cur IS TS.Var THEN
					IF (cur(TS.Var).type.kind= TS.TObject) & (cur(TS.Var).type.object = NIL) THEN
						KernelLog.String("cur.name^= "); KernelLog.StringJQ(cur.name^,2); KernelLog.String(" will now lead to halt "); KernelLog.Ln;
					END;
					IF lastVarType # cur(TS.Var).type THEN CheckType(cur(TS.Var).type) END; lastVarType := cur(TS.Var).type;
				ELSIF cur IS TS.ProcDecl THEN CheckProcedure(cur(TS.ProcDecl))
				END;
				last := cur
			END
		END SearchUses;

		PROCEDURE TextChanged(sender, data : ANY);
		BEGIN
			modified := TRUE;
			IF DoAutoRefresh THEN
				updateTimer.Stop(SELF, NIL);
				updateTimer.Start(SELF, NIL)
			END
		END TextChanged;

		PROCEDURE Finalize*;
		BEGIN
			Finalize^;
			IF (editor # NIL) & (editor.text # NIL) THEN
				editor.text.onTextChanged.Remove(TextChanged)
			END
		END Finalize;

	END ModuleTree;

RefreshWorkOfPETPanelProcType* = PROCEDURE (petPanel : WMComponents.VisualComponent) : TS.Module;

VAR
	RefreshWorkOfPETPanelProcVar* : RefreshWorkOfPETPanelProcType;

	PrototypeShowTypeHierarchy, PrototypeShowImportedModules : WMProperties.BooleanProperty;
	treeFontOberon10Plain, treeFontOberon10Bold, treeFontOberon10Italic: WMGraphics.Font;
	PMTonBrowseExternal : StringsUCS32.String;

PROCEDURE GetInsertString(ident : TS.NamedObject; VAR newStr : ARRAY OF UCS32.CharJQ);
VAR signature : TS.ProcedureSignature;
	i : SIGNED32;
BEGIN
	UCS32.COPYJQvJQ(ident.name^, newStr);
	IF ident IS TS.ProcDecl THEN
		signature := ident(TS.ProcDecl).signature;
		IF signature # NIL THEN
			IF signature.params.nofObjs > 0 THEN StringsUCS32.Append(newStr, UCS32.Lit("(")^) END;
			FOR i := 0 TO signature.params.nofObjs - 1 DO
				StringsUCS32.Append(newStr, signature.params.objs[i].name^);
				IF i < signature.params.nofObjs - 1 THEN
					StringsUCS32.Append(newStr, UCS32.Lit(", ")^)
				END
			END;
			IF signature.params.nofObjs > 0 THEN StringsUCS32.Append(newStr, UCS32.Lit(")")^) END
		END;
	END;
END GetInsertString;

PROCEDURE FindSuggestions(scope : TS.Scope; first: BOOLEAN; prefix : ARRAY OF UCS32.CharJQ;	suggestions : TS.ObjectList);
VAR ol : TS.ObjectList;
	i: SIGNED32;
BEGIN
	IF scope = NIL THEN RETURN END;
	NEW(ol);
	scope.FindCandidates(prefix, first, TRUE, ol);
	i := 0; WHILE i < ol.nofObjs DO
		IF StringsUCS32.StartsWith2(prefix, ol.objs[i].name^) THEN
			suggestions.Add(ol.objs[i]);
		END;
		INC(i)
	END;
END FindSuggestions;

(** returns the type of the procedure *)
PROCEDURE GetProcedureType(proc : TS.ProcDecl) : SIGNED32;
VAR type : SIGNED32;
BEGIN
	type := ProcOther;
	IF (proc.signature = NIL) OR (proc.signature.params = NIL) & (proc.signature.return = NIL) THEN
		type := ProcCommand;
	END;
	RETURN type;
END GetProcedureType;

PROCEDURE GenModuleTree*() : PETTrees.Tree;
VAR tree : ModuleTree;
BEGIN
	NEW(tree); RETURN tree;
END GenModuleTree;


BEGIN
	PMTonBrowseExternal := UCS32.Lit("Browse into another file");
	PMTonBrowseExternal := UCS32.Lit("fired to browse to a definition in another file");
	treeFontOberon10Plain := WMGraphics.GetFont("Oberon", 10, {});
	treeFontOberon10Bold := WMGraphics.GetFont("Oberon", 10, {WMGraphics.FontBold});
	treeFontOberon10Italic := WMGraphics.GetFont("Oberon", 10, {WMGraphics.FontItalic});

	NEW(PrototypeShowTypeHierarchy, NIL, ASCIIStrings.NewString("ShowTypeHierarchy"), ASCIIStrings.NewString("Show type hierarchy?"));
	PrototypeShowTypeHierarchy.Set(FALSE);
	NEW(PrototypeShowImportedModules, NIL, ASCIIStrings.NewString("ShowImportedModules"), ASCIIStrings.NewString("Show imported modules details?"));
	PrototypeShowImportedModules.Set(FALSE);
END TFModuleTreesUCS32.

Tar.Create ModuleTreesIcons.tar
	activity.png
	arrow-red.png
	arrow-yellow.png
	arrow-green.png
	arrow-blue.png
~
